-0.11	0.02	-0.36	-0.11	0.48	-0.2	0.27	0.29	-0.34	-0.05	0.23	0.08	-0.45	0.25
-0.3	-0.37	-0.18	-0.09	-0.16	-0.16	-0.1	-0.09	0.46	0.32	0.02	0.31	0.4	-0.07
0.5	0.18	0.41	0.0371497850105608	0.129693526913319	0.15	-0.25	-0.41	-0.07	-0.13	-0.15	-0.01	-0.28	-0.09
0	-0.11	-0.116118832717642	0.19	0	-0.07	0.18	0.18	-0.23	-0.16	0.03	-0.12	-0.11	0.23
0.4	-0.16	0.31	-0.34	0.02	0.21	-0.7	0.11	0.08	0.05	-0.09	0.07	0.04	-0.01
0.39	-0.18	-0.09	-0.04	-0.25	-0.69	-0.64	-0.38	0.41	0.33	-0.62	0.23	0.92	0.61
0.5	-0.24	-0.16	0.0258906714868512	0.04	0.171924160407077	-0.11	0.1	-0.04	-0.01	-0.04	-0.15	0.05	-0.11
-0.52	-0.48	-0.73	-0.42	-0.4	-0.01	-0.34	0.55	0.327105097078596	0.37	-0.29	0.63	0.87	0.28
-0.87	-0.17	0.1	-0.12	0.116096568846172	0.52	-0.28	0.5	0.09	-0.01	0.08	-0.15	-0.16	-0.16
-1.39	-0.57	-0.16	-0.02	0.3	0.41	0.03	0.5	0.48	0.51	-0.11	0.14	-0.06	-0.05
0.15	-0.58	0.19	0.02	0.41	0.11	0.02	0.0426875016174941	0.13	0.13	-0.22	0.02	-0.3	-0.12
-0.47	-0.63	0	-0.29	0.13	0.43	0.33	0.33	0.28	0.31	-0.08	0.03	-0.13	-0.23
-0.64	-0.04	-0.07	-0.09	-0.06	0.11	0.28	-0.03	0.09	0.33	0.33	-0.09	-0.04	-0.07
-0.36	-0.53	0.23	0.81	0.22	-0.06	-0.00495817665123855	-0.22	0.14	0.2	-0.16	-0.1	0.03	-0.04
0.94	0.17	0.12	-0.01	-0.58	-0.48	-0.41	0.08	0	-0.35	-0.2	0.2	0.15	0.37
0.42	-0.23	-0.1	-0.165274837333644	-0.1	-0.08	-0.01	0.05	-0.07	-0.19	0.02	0.5	0	0.19
0.47	0.29	0.03	0.06	-0.12	-0.04	-0.04	0.03	-0.27	-0.21	-0.03	-0.25	-0.01	0.09
-1.21	-0.44	-0.02	0.51	0.7	0.47	0.26	0.41	-0.02	-0.05	0.04	-0.34	-0.38	0.07
0.11	-0.35	0.05	0.11	0.52	0.32	0.43	-0.12	-0.12	-0.25	0.01	-0.35	-0.43	0.07
0.4	-0.54	-0.24	-0.33	-0.24	-0.07	-0.01	0.13	0.24	0.06	-0.24	0.180035302886446	0.46	0.22
-0.5	-0.127758016130054	0.24	0.75	0.66	0.53	0.44	-0.05	-0.12	-0.03	-0.06	-0.55	-0.6	-0.48
0.24	-0.09	0.9	-0.09	-0.04	0.01	0.13	-0.04	-0.21	-0.03	0.04	-0.02	-0.78	-0.02
0.24	-0.07	-0.15	0.24	0.04	0	0.23	0.08	-0.14	-0.18	-0.05	-0.23	-0.03	0.03
0.41	-0.18	0.24	0.1	0.5	0.23	0.07	-0.24	0.05	-0.12	-0.22	-0.12	-0.51	-0.2
0.1	-0.05	-0.18	-0.27	0.39	0.59	-0.29	0.13	-0.1	0.03	-0.07	-0.24	0.09	-0.13
-0.24	-0.11	-0.05	-0.06	0.38	0.05	0.41	0.16	0.06	0.24	0	-0.3	-0.39	-0.15
0.01	-0.31	-0.16	0.12	-0.02	0.117222663580409	-0.26	-0.05	0	0.11	0.19	0.01	-0.06	0.04
0.81	-0.0228394479956581	0.07	-0.25	-0.51	-0.45	-0.53	-0.07	0.13	-0.15	-0.03	0.35	0.15	0.52
0.13	0.02	0.04	0.07	0.37	0.02	0.02	-0.02	0.1	-0.16	-0.21	-0.21	-0.06	-0.11
-0.36	0.14	-0.14	0.45	0.69	0.5	-0.04	-0.12	-0.14	-0.02	0.2	-0.02	-1.34	0.2
0.23	0.03	-0.29	0.11	0.19	0.17	0.13	0.12	-0.16	-0.1	-0.02	-0.21	-0.15	-0.06
0.58	0.33	0.01	-0.29	-0.38	-0.17	0.17	-0.05	0.01	-0.15	0.07	0.13	-0.17	-0.1
0.62	0.08	-0.23	0.07	0.152513532738689	-0.114836555844494	0.04	-0.01	0.25	-0.08	-0.33	0.3	-0.64	-0.13
0.12	-0.15	-0.19	0.09	0.27	0.35	0.07	-0.03	-0.13	-0.08	0.19	-0.27	-0.15	-0.08
-0.41	0.54	0.36	0.01	-0.2	0.05	-0.0534914175646889	0.15	-0.11	0.01	-0.31	-0.12	-0.04	0.16
0.72	-0.21	0.14	-0.08	-0.32	-0.21	-0.13	0.03	0.14	-0.01	-0.26	0.02	-0.24	0.42
-0.04	-0.18	-0.04	-0.18	0.11	0.13	0.12	0.15	0.05	-0.01	-0.01	-0.04	-0.05	0.01
0.38	-0.25	-0.05	0.23	-0.09	0.87	-0.05	-0.25	0.05	0.3	-0.48	-0.3	-0.01	-0.35
0.83	0.1	0.1	-0.04	-0.18	-0.22	-0.2	0.21	0.1	-0.24	-0.18	-0.06	-0.26	0.07
-0.0237703008644501	-0.29	-0.15	0.01	0.23	-0.05	0.28	0.15	0.13	-0.0888070601802948	0.13	-0.03	-0.31	-0.01
-0.15	0.16	0	-0.07	-0.08	-0.04	-0.44	-0.07	0	0.37	-0.05	0.13	-0.02	0.27
-0.15	-0.12	-0.01	-0.25	-0.21	-0.39	-0.05	0.08	0.23	0.1	-0.05	0.3	0.43	0.08
0.04	0.05	-0.01	0.24	0.35	-0.14	0.07	0.0479967244647849	-0.05	-0.17	-0.03	-0.14	0	-0.03
0.08	0.3	0.3	-0.9	-0.02	0	0.27	-0.17	0	0.15	0.11	-0.06	0.07	-0.11
1.86	0.52	-1.49	0.53	-0.96	-0.65	0.08	-0.33	-0.2	-0.44	-0.28	0.45	0.57	0.34
0.15	-0.02	0.04	0.186943907176367	0.35	0.07	0.13	0.1	-0.15	-0.32	0.06	-0.2	-0.51	-0.18
0.470441621942591	0.11	0.37	0.66	0.14	0.16	0.06	-0.53	-0.3	-0.22	-0.17	-0.57	-0.32	0.17
-0.2	-0.26	-0.32	0.23	-0.17	-0.28	0.14	0.3	0	0.11	0.17	0.08	0.02	0.18
-0.74	-0.25	-0.43	-0.23	0.01	-0.100700888967753	-0.17	0.42	0.22	0.51	-0.12	0.33	0.16	0.47
-0.27	-0.14	0.34	0.41	0.16	0.05	0.27	-0.08	0.28	0.24	0.03	0.07	-1.17	-0.19
-0.21	-0.06	-0.0486617650575662	0.35	0.2	0.15	0.24	-0.09	-0.48	-0.108758756176115	0.13	-0.43	-0.06	-0.04
-0.19	-0.03	-0.43	-0.31	0.03	0.19	-0.11	0.19	0.14	0.16	0.0678195605022159	0.22	-0.17	0.12
-0.15	0.29	-0.03	0.04	-0.01	0.02	-0.01	-0.11	-0.01	-0.04	-0.15	0.04	0.01	0.13
0.23	-0.02	0.01	-0.32	0.22	0.01	0.29	0.09	-0.19	-0.23	0.0477009055612636	-0.15	-0.21	0.01
-0.77	-0.45	-0.04	0.14	0.55	0.37	0.36	0.16	-0.19	0.14	0.03	-0.14	-0.53	0.37
-0.88	-0.53	-0.22	0.15	0.53	0.15	0.15	0.32	0.27	0.12	-0.41	0.14	0.11	0.11
0.35	-0.14	-0.0195922529686543	-0.12	-0.24	-0.47	-0.31	0.06	0.19	0.06	-0.193361730021661	0.38	0.29	0.11
0.323430722192329	-0.37	0.1	-0.07	-0.23	-0.08	-0.07	0.05	0.05	-0.08	-0.04	-0.25	0.12	0.17
1.81	0.87	0.05	0.35	-1.13	-1.05	0.74	-0.52	-0.66	-1.13	-0.57	0.51	0.37	0.34
0.6	0.09	-0.04	0.03	-0.21	-0.49	-0.18	-0.31	-0.01	0.14	0.08	0.18	-0.14	0.27
-0.94	0.05	0.08	0.69	0.65	0.32	0.06	-0.34	-0.05	0.1	-0.46	-0.25	-0.07	0.15
0	-0.14	-0.29	0.19	0.35	0.06	0.31	0.15	-0.06	-0.43	0.24	-0.01	-0.31	-0.06
0.36	-0.01	-0.03	-0.1	0.26	0.28	-0.17	-0.15	0.04	-0.2	0.06	-0.15	-0.15	-0.03
0.42	0.07	0.48	0.36	0.12	-0.07	0.02	-0.04	-0.38	-0.53	-0.1	-0.185292646513576	-0.13	0
0.1	0.3	-0.05	-0.45	-0.51	-0.29	0	0.14	0.12	-0.17	0.01	0.29	0.14	0.37
1.04	0.54	0.15	-0.27	-0.06	-0.27	-0.15	-0.06	-0.33	-0.37	0.07	-0.17	-0.05	-0.05
0.64	-0.09	0.05	-0.25	-0.17	-0.02	-0.07	-0.1	-0.19	-0.04	0	0	0.03	0.22
0.97	0.33	-0.07	0.43	-0.09	-0.4	-0.24	-0.04	-0.04	-0.26	-0.28	-0.06	-0.125465815418737	-0.09
0.24	-0.14	0.22	0.24	0.17	-0.18	-0.14	-0.35	-0.01	-0.09	-0.06	0.04	-0.0968469536551665	0.17
0.91	0.02	0.09	0.11	-0.18	-0.12	-0.42	-0.19	-0.08	-0.14	0.03	0.19	-0.04	-0.18
0	-0.32	0.08	0.32	0.19	-0.05	0.08	0	-0.2	0.05	0.1	-0.07	-0.12	-0.07
-0.14	0.1	-0.32	-0.25	-0.31	0.02	0.17	0.14	0.05	0.07	0.17	-0.06	0.18	0.18
-0.52	-0.1	-0.12	-0.14	0.01	-0.09	0.28	0.34	0.19	0.07	0.0757378936526763	-0.09	0.0281187774265937	0.16
0.38	-0.07	0.05	0.32	0.41	-0.15	0.01	0.16	-0.07	-0.21	-0.13	-0.19	-0.35	-0.17
0.55	0.15	0.17	-0.2	-0.43	-0.47	-0.13	0.09	0.01	0.01	-0.0626871278174191	-0.13	0.05	0.54
0.87	0.51	0.05	0.06	-0.2	-0.18	-0.24	-0.23	-0.15	-0.07	-0.0534832802480184	-0.4	-0.01	0.03
0.17	-0.43	-0.03	0.05	0.03	0.45	0.07	0.19	-0.12	0.07	0.02	-0.08	-0.25	-0.14
0.33	-0.08	-0.14	-0.78	-0.3	0.06	0.39	0.08	0.2	-0.14	0.33	0.37	-0.22	-0.1
-0.35	-0.3	0.07	0.09	0.01	-0.51	-0.125440600723475	0.24	0.14	0.21	-0.19	0.24	0.29	0.14
0.07	-0.65	0.07	-0.17	0.14	0.3	0.07	0.01	0.07	0.05	0.33	-0.1	-0.41	0.23
-0.78	-0.09	0.23	0.17	0.35	0.4	0.26	0.19	-0.13	0.05	0.05	-0.48	-0.67	0.46
0.31	0	0.31	-0.16	0.1	-0.5	-0.1	-0.2	0.31	-0.1	0.14	-0.4	0.39	-0.1
0.1	-0.07	0.25	-0.13	0.29	0.18	0.18	-0.13	-0.07	-0.23	0.41	-0.69	-0.23711947452939	-0.11
-0.38	-0.07	0.16	-0.28	0.02	0.15	0.26	-0.06	0.0126782744660186	0.02	0.32	-0.11	-0.03	0.24
0.44	0.24	-0.06	-0.32	-0.16	-0.08	-0.09	-0.08	0.08	-0.14	0.19	0.09	-0.17	0.08
0.31	0	-0.08	0.17	0.09	-0.17	0.11	0.0475198239315583	0.22	0.06	-0.11	0.03	-0.29	-0.17
0.02	-0.3	0.02	-0.02	0.33	0.06	0.23	0.16	0.23	-0.28	-0.02	-0.13	-0.16	-0.13
0.48	-0.04	-0.05	0.39	-0.17	-0.17	0.02	-0.09	-0.15	-0.15	0.08	-0.15	-0.07	0.0335884805657441
-0.52	-0.05	-0.01	0.57	0.49	0.3	0.214096425004827	0.16	-0.05	-0.15	0.05	-0.12	-0.42	-0.44
0.09	0.42	0.08	0.42	0	-0.29	0.08	-0.08	-0.31	0.02	0.27	-0.27	-0.39	-0.06
0.65	0.21	0.21	0.12	0.05	-0.19	0.02	-0.11	-0.11	-0.3	-0.11	-0.37	-0.07	-0.01
-0.46	-0.26	-0.3	0.12	0.12	0.03	0.13	0.05	0.04	0.22	-0.03	0.22	0.16	0.1148938415682
0.29	0.36	0.38	-0.21	-0.02	0.16	0.21	-0.16	-0.21	-0.25	0.28	-0.29	-0.41	-0.12
1.47	0.3	0.2	-0.24	-0.22	0.02	-0.06	-0.37	-0.04	-0.32	0.06	-0.04	-0.29	-0.48
0.59	0.22	0.01	-0.33	-0.18	-0.29	-0.06	-0.02	0.28	-0.12	-0.21	0.06	0.23	-0.18
-0.21	-0.52	-0.3	0.08	-0.03	-0.36	-0.2	0.23	0.17	0.43	0.04	0.13	0.1	0.45
-0.11	-0.6	0.63	0.06	0.13	0.29	0.2	0.04	-0.05	0.11	0.04	-0.32	-0.43	0.01
-0.16	-0.01	-0.07	-0.05	-0.09	0.07	0.23	0.09	-0.27	0.12	0.07	0.04	-0.16	0.18
0.36	0.43	0	-0.35	-0.02	-0.25	0.16	0.07	-0.53	-0.14	0.13	-0.08	0.13	0.0733891157099132
0.58	-0.04	0.02	0.51	0.121436269479867	0.12	-0.25	-0.08	-0.02	-0.29	0.21	-0.75	-0.22	0.11
-0.27	-0.08	-0.21	0.06	-0.06	0.06	0	0.15	0.31	0.03	0.1	0	-0.15	0.06
0.35	0.04	-0.12	0.21	0.46	0.15	0.34	-0.07	-0.05	-0.26	-0.05	-0.32	-0.45	-0.24
0.64	-0.0962603321492976	0.11	-0.01	0.27	0.02	0.107709469475235	0.01	-0.09	-0.17	0.07	-0.26	-0.79	0.08
0.46	0.02	-0.23	0.04	-0.23	-0.08	-0.04	0.09	-0.12	0.04	0.16	0.02	-0.21	0.07
0	-0.84	-0.49	-0.42	-0.49	-0.68	-0.03	0.39	0.55	0.56	0.48	0.57	0.13	0.29
1.25	-0.47	0.09	0.39	0.37	0.09	1.09	-0.39	-0.16	-0.39	-0.2	-0.274475321947801	-0.86	-0.33
-0.73	-0.83	-0.31	0.12	0.7	0.82	0.51	0.27	0.12	0.17	0.34	-0.29	-0.73	-0.18
0.08	-0.06	0.04	0.14	0.11169823439869	-0.22	-0.06	0.19	0.02	-0.22	0.1	0.1	-0.22	-0.06
-0.27	-0.05	-0.0648750006493109	-0.17	0	-0.11	-0.13	-0.03	0.22	0.19	-0.07	0.138233885780004	-0.03	0.28
-0.14	-0.09	-0.33	-0.27	0.29	-0.01	0.11	0.18	-0.06	0.08	0.24	0.01	-0.14	0.11
0.33	-0.18	-0.16	-0.18	0.05	-0.43	-0.22	-0.28	0.26	0.26	-0.26	0.34	0.3	0.14
0.71	0.1	0.04	0.11	-0.14	-0.19	-0.1	-0.27	-0.18	-0.21	-0.27	0.1	0.14	0.15
-1	0.34	0.24	-0.2	-0.25	-0.09	-0.16	0.41	0.19	0.11	0.08	0.21	-0.02	0.13
-0.06	-0.18	-0.28	-0.41	-0.3	-0.19	-0.54	0	0.22	0.14	0.37	0.37	0.28	0.6
1.43	-0.12	0.13	0.13	0.04	0.01	0.16	-0.06	-0.31	-0.37	-0.21	-0.6	-0.21	-0.03
0.85	0.05	0.37	0.23	-0.12	-0.12	-0.03	-0.01	-0.33	-0.35	-0.16	-0.12	-0.37	0.14
-0.27	-0.18	-0.06	-0.02	0.35	0.13	0.19	0.04	0.11	-0.12	0.02	0.06	-0.14	-0.1
0.1	-0.3	0.64	0.28	0.19	-0.02	0.06	0.21	-0.17	-0.04	-0.27	-0.25	-0.36	-0.06
-0.07	0.06	-0.22	0.59	-0.16	-0.25	0.08	0.0539644057555825	0	-0.08	-0.31	0.06	0.28	0.18
-0.21	1.23	0.37	0.16	0.31	0.19	-0.01	-0.26	-0.23	0.16	-0.13	-0.11	-0.98	-0.49
1.27	1.67	0.45	-0.67	-0.7	-0.73	-0.57	-0.45	0.04	-0.07	-0.12	0.23	-0.09	-0.26
-1.28	-0.21	-0.13	0.22	-0.08	0.23	0.35	0.08	0.01	0.37	-0.18	0.110131476594487	0.16	0.3
1.07	0.21	0.32	0.47	-0.07	-0.03	-0.14	-0.25	-0.52	-0.52	-0.01	-0.04	-0.37	-0.12
0.69	0.03	-0.09	-0.32	-0.74	-1.08	-0.62	-0.05	0.46	0.07	-0.18	0.7	0.76	0.36
-0.9	-0.56	-0.22	-0.14	-0.32	0.01	0.14	0.41	0.27	0.45	0.03	0.21	0.34	0.28
0.08	-0.24	-0.04	0.16	-0.03	0.06	0.11	0.45	0.13	0.22	-0.06	-0.189863838430638	-0.49	-0.03
0.28	0.0740666741446781	0.16	0.16	-0.15	0	-0.22	-0.0490408434266804	-0.22	0	-0.13	0.05	-0.05	0.06
-0.49	-0.46	0.01	-0.7	0.13	0.05	0.56	0.49	0.33	0.1	0.3	0.22	-0.28	-0.26
0.08	0.01	0.35	0.22	0.04	-0.01	-0.2	0.01	-0.18	0.2	-0.15	-0.03	-0.44	0.1
0.56	0.05	-0.02	-0.255648771692901	-0.09	-0.67	-0.41	0.01	0.27	-0.04	-0.37	0.46	0.36	0.01
1.87	0.91	0.81	0.45	-0.46	-1.07	-0.79	-0.6	-0.07	-0.48	-0.40332385582945	-0.09	0.37	0.03
1.97	0.09	0	-0.28	-0.84	-0.68	-0.53	0	-0.02	-0.3	-0.32	0.29	0.33	0.29
0.19	-0.32	-0.14	-0.08	0.26	0.25	-0.1	0.11	-0.03	-0.16	0.29	-0.08	-0.27	0.08
0.39	-0.28	-0.35	0.01	0.1	-0.09	0.1	0.19	-0.09	0.14	0.14	-0.09	-0.33	0.16
-0.39	-0.35	0.65	-0.3	-0.17	-0.24	-0.06	0.1	0.31	0.3	-0.09	0.08	0.0705366952655424	0.31
-0.39	-0.46	-0.3	0.03	-0.04	0.04	0.15	-0.08	0.46	0.29	-0.26	0.46	-0.08	0.17
0.25	0.02	0.14	-0.19	0.02	-0.27	-0.25	-0.05	0.146129486854975	0.02	-0.09	0.1	0.22	-0.13
-0.4	0.52	-0.31	-0.08	0.03	0.05	-0.05	-0.12	0.14	-0.12	0.15	0.03	-0.14	0.29
0.57	-0.24	-0.03	-0.12	0.1	0.15	-0.01	-0.08	0.12	-0.24	-0.12	-0.16	-0.14	0.21
0.66	0.38	0	0.14	-0.34	-0.34	-1.04	0.17	0.2	-0.21	-0.37	0.15	0.38	0.23
0.22	0.03	0.09	-0.17	0.1	0.07	0.04	-0.09	0.03	-0.31	-0.04	0.1	-0.24	0.17
1.45	-0.53	-0.02	-0.51	-0.4	-0.49	-0.6	0.03	0.19	-0.05	-0.32	0.42	0.33	0.48
0.57	0.06	-0.16	-0.2	-0.08	-0.2	-0.46	-0.06	0.18	0.0278933312496519	-0.16	0.09	0.04	0.0597230254706641
0.58	-0.07	-0.47	-0.02	-0.05	0.0648093905965941	0.02	-0.23	-0.07	-0.17	1.59	-0.17	-0.222654768809059	-0.13
0.933917745704788	-0.15	-0.04	-0.38	-0.25	-0.91	-0.49	0.01	0.31	-0.06	-0.25	0.466717274376025	0.44	0.46
0.43	-0.16	0.11	-0.11	-0.32	-0.21	-0.14	-0.13	0.23	0.06	-0.24	0.34	0.32	-0.18
0.06	0.3	0.01	0.14	-0.11	-0.16	-0.02	0.06	-0.09	0.09	-0.25	-0.14	-0.03	0.13
0.24	0.11	-0.37	0.25	-0.6	-0.58	-0.62	0.29	0.32	0.05	-0.32	0.17	0.73	0.31
-0.28	0.0194649519669414	0.01	-0.02	-0.15	0.04	-0.18	0.29	-0.1	-0.18	-0.1	-0.17	0.28	0.14
-0.02	0.8	-0.36	-0.2	-0.2	-0.46	-0.29	-0.0106236198451084	0.0693362876781096	-0.04	0.01	0.33	-0.08	0.5
-0.39	0.25	0.05	-0.47	-0.47	-0.47	-0.35	0.31	0.213159476406017	0.138442088929919	0.18	0.32	0.22	0.22
0.9	0.19	0.37	-0.06	-0.48	-0.48	-0.21	-0.16	-0.16	-0.35	-0.24	0.16	0.3	0.24
0.12	-0.02	0.12	-0.11	-0.05	-0.07	-0.05	-0.04	0	-0.17	0.13	0.1	-0.05	0.1
0.37	-0.42	-0.15	-0.27	-0.05	0.141400543646765	0.22	0.12	0.19	-0.08	0.16	0.09	-0.29	-0.03
0.44	0.27	0.00295676790372022	-0.43	-0.18	0.01	0.22	-0.1	-0.2	-0.26	0.05	0	0.2	0.12
0.31	0.31	1.24	-0.08	-0.0875726760649198	-0.03	-0.13	-0.29	-0.33	-0.33	0.02	-0.29	-0.37	-0.08
0.39	-0.1	-0.1	-0.43	0.18	0.3	-0.01	0.00766481266342918	0.08	-0.12	0.32	-0.48	-0.31	0.03
0.19	-0.01	0.24	0.22	0.34	0.06	0.31	-0.19	-0.06	-0.127095290064281	0.16	-0.48	-0.21	-0.19
-1.04	-0.72	-0.28	-0.17	0.45	0.73	0.6	0.36	0.18	0.22	0.28	-0.17	-0.6	0.15
0.67	0.02	-0.13	-0.22	-0.14	-0.2	-0.26	-0.42	0.0842311369425019	0.05	-0.2	0.47	0.19	0.25
0.93	-0.16	-0.08	-0.25	-0.23	-0.1	-0.05	0.01	-0.07	-0.37	0.28	0.26	-0.16	0
1.15	0.37	0.46	0.16	-0.58	-0.53	-0.27	-0.23	0	-0.38	-0.14	0.05	-0.16	0.12
0.09	0.0406000911155067	0.51	-0.15	0.32	0.34	0.26	-0.13	-0.2	-0.24	0.32	-0.34	-0.59	-0.17
0.353024150951758	0.1	0.3	0.07	-0.22	-0.2	-0.13	0.1	0.02	-0.2	-0.09	-0.2	-0.01	0.04
0.67	0.05	-0.04	-0.1	0.14	-0.1	-0.14	-0.16	-0.16	-0.02	-0.12	0.09	-0.2	0.07
-0.77	-0.29	-0.31	-0.126438895083636	0.03	-0.17	-0.0797043059584767	0.211361405832609	0.37	0.42	-0.12	0.04	-0.08	0.4
0.62	0.01	-0.08	-0.29	-0.1	-0.41	-0.46	-0.02	0.28	0.16	-0.36	0.36	0.34	-0.04
0.38	0.08	0.04	-0.01	0.1	-0.38	0.21	-0.03	0.05	0.1	0.000507538301295322	0.08	-0.38	-0.01
-0.91	-0.11	-0.06	0.23	0.28167869373533	0.223972791038481	0.31	0.37	0.17	0.14	-0.06	-0.09	-0.22	-0.37
0.84	-0.35	-0.1	-0.37	-0.48	-0.46	-0.13	0.43	0.38	-0.12	-0.13	0.26	0.22	0
-0.02	-0.04	0	0.1	0.08	-0.31	-0.15	-0.04	0.16	-0.06	-0.24	0.21	0.12	0.19
-0.83	0.04	0.1	-0.18	-1.1	-0.51	0.11	0.51	0.46	0.29	-0.02	0.61	0.16	0.36
0.09	-0.0899315882986683	-0.15	-0.03	-0.07	-0.09	0.04	-0.01	0.09	0.18	0.23	-0.4	-0.13	0.21
0.24	-0.18	-0.28	-0.11	-0.89	-0.6	-0.47	0.18	0.17	0.11	-0.04	0.47	0.79	0.6
0.27	-0.29	-0.25	0.38	0.08	0.35	-0.11	0.24	0.24	0.21	0.06	-0.79	-0.31	-0.06
-0.33	0.44	-0.08	0.0943435696058259	-0.16	-0.02	-0.23	0.15	-0.13	0.21	0.15	0.07	-0.37	0.39
-0.06	-0.06	0.22	0.01	0.36	0.21	0.12	0.14	0.07	-0.1	-0.2	-0.1	-0.13	-0.49
-0.36	-0.83	-0.51	-0.06	0.08	0.31	0.06	-0.12	0.51	0.49	0.17	0.28	-0.05	0.103818726725862
0.51	-0.05	-0.3	-0.09	0.0438398077143957	-0.07	-0.05	0.15	0.24	-0.07	0.0841036378944001	-0.01	-0.26	0.01
0.03	0.05	0.03	-0.05	0.19	-0.3	-0.05	-0.05	0.28	-0.01	-0.07	0.15	-0.13	-0.09
-0.75	-0.32	-0.16	0.22	0.16	0.09	-0.02	0.3	0.09	0.25	-0.18	0.02	0.1	0.19
-0.4	0.35	0.02	0.34	-0.3	-0.15	0	0.12	-0.01	0.2	-0.26	0.04	-0.07	0.12
0.13	-0.06	0.07	0.61	0.28	0.09	0.01	-0.27	0.4	0.01	-0.27	-0.41	-0.38	-0.0867598827006409
0.61	0.01	0.17	0.53	0.01	-0.1	0.049491641697513	-0.18	-0.01	-0.22	-0.08	-0.49	-0.1	-0.07
0.08	-0.5	-0.26	-0.38	-0.5	-0.14	-0.07	0.28	0.48	0.1	0.1	0.43	0.1	0.28
0.1	0.25	0.16	-0.04	0.1	-0.06	0.28	-0.06	-0.09	-0.59	0.13	0.05	-0.25	0.02
-0.21	-0.14	-0.63	-0.6	-0.227393174004726	-0.04	-0.06	0.42	0.62	0.46	0	0.43	0.23	0.02
-0.62	0.24	0.44	0.02	-0.36	-0.22	-0.38	0.0948358875005458	0.02	0.12	0.34	0.22	-0.01	0.08
0.33	-0.00578910818533015	-0.15	-0.08	-0.15	-0.08	0.06	0.19	-0.01	-0.01	-0.1	0.12	0.18	0.13
0.35	0.01	0.11	0.32	0.03	0.03	0.09	-0.03	-0.31	-0.35	0.18	-0.261925742662078	-0.01	-0.27
-0.79	-0.54	0.05	0.54	0.68	0.51	0.54	0.29	-0.25	-0.17	0	-0.07	-0.5	-0.29
-0.54	-0.08	-0.11	0.74	0.26	0.0685415132846926	0.39	0.02	0.07	0.09	-0.28	-0.11	-0.26	-0.28
0.24	-0.21	-0.09	-0.29	0.25	0.08	0.13	-0.13	0.18	0.02	0.1	-0.09	-0.23	0.05
1.94	0.67	0.71	0.01	-0.99	-0.95	-0.95	-0.32	0.35	-0.49	-0.78	0.41	0.33	0.06
0.36	-0.28	-0.02	0.37	0.26	-0.02	0.31	0.12	-0.41	-0.11	-0.08	-0.08	-0.32	-0.1
0.88	0.23	0.53	0.54	-0.97	-1.21	-0.95	-0.54	0.39	-0.65	-1.18	0.56	1.51	0.87
-0.27	-0.11	-0.2	-0.41	-0.11	-0.15	-0.09	0.03	0.3	0.36	0.16	0.3	0.2	-0.01
-0.05	-0.19	-0.33	-0.44	-0.15	-0.23	-0.01	0.28	0.33	0.28	0.07	0.16	0.13	0.15
0.6	-0.02	-0.09	0.49	0.31	-0.02	0.05	-0.31	-0.15	-0.53	0.16	-0.56	0.41	-0.34
-0.37	-0.3	0.61	-0.06	-0.25	-0.32	-0.5	0.17	0.06	0.37	0	0.21	0.2	0.17
1.11	-0.13	-0.16	0.12	0.15	-0.22	-0.02	-0.15	-0.2	-0.4	-0.06	-0.01	-0.109651725403469	0.15
-0.06	0.06	-0.56	0.02	-0.028031005321281	0.08	-0.05	0.02	-0.01	0.26	0.24	0.18	-0.16	0.2
0.08	0.06	0.05	-0.03	-0.27	-0.23	-0.14	0.15	-0.03	-0.08	0.14	-0.05	-0.02	0.38
-0.43	0.17	-0.91	0.38	-0.16	-0.01	0	0.31	0.19	0.33	-0.22	0.3	-0.16	0.2
-1.07	-0.39	-0.48	-0.27	-0.13	0.48	0.28	0.45	0.16	0.19	0.17	0.48	0.04	0.1
0.111327576181808	-0.09	0.29	-0.01	-0.18	-0.23	0.22	0.03	-0.06	0.15	-0.15	-0.04	-0.21	0.24
-0.03	-0.27	-0.12	0.32	0.41	-0.19	0.13	-0.1	-0.38	-0.03	0.25	0.04	-0.25	0.19
-0.64	-0.02	-0.2	0.14	0.18	-0.01	0.08	0.27	0.06	0.42	-0.04	-0.0460710661511614	-0.133869638360729	0.14
-0.152532629543114	-0.17	-0.06	0.62	0.95	0.76	0.28	0.08	-0.01	0.57	-0.38	-0.64	-0.33	-0.29
0.4	-0.43	-0.47	0.03	0.1	0.26	-0.14	0.03	0.19	0.13	-0.09	-0.16	0.07	0.06
-0.29	-0.00245676226919905	0.09	0.29	0.39	-0.01	-0.23	-0.09	-0.05	0.11	-0.07	-0.07	-0.01	0.02
0.76	0.16	-0.14	-0.4	-0.03	-0.29	-0.11	-0.01	0.03	-0.09	-0.34	0.12	0.32	0.02
0.32	0.03	-0.21	0.21	0.62	0.17	-0.21	-0.15	-0.4	-0.33	0.21	-0.01	-0.381462497109164	0.19
-0.8	-0.22	-0.67	0.21	0.35	0.34	0.24	0.56	0.18	0.19	-0.09	-0.09	-0.17	-0.03
0.32	-0.285179944824551	-0.35	-0.67	-1.07	-1	-0.73	0.04	0.54	0.42	0.4	0.66	0.411430266797987	0.14
1.13	0.1	-0.13	-0.51	-0.13	-0.36	-0.43	-0.22	0.25	-0.22	-0.24	0.52	0.17	0.05
1.07	0	-0.07	-0.35	-0.26	-0.39	-0.53	-0.01	0.09	-0.17	-0.45	0.44	0.5	0.11
0.88	-0.18	-0.18	-0.18	0.03	-0.14	0.01	-0.28	0.05	-0.01	0.00429777281001635	0.11	-0.18	0.18
0.38	-0.29	-0.1	0.13	0.161931290316793	0.19	-0.18	-0.14	0.02	0.01	0.13	-0.05	-0.27	-0.12
0.187451930368743	-0.17	-0.33	0.13	0.13	-0.1	-0.01	-0.08	-0.06	-0.06	-0.06	-0.01	0.04	-0.12
0.38	0.26	-0.09	-0.03	0.14	0.18	0.07	0.03	-0.14	-0.06	-0.01	-0.33	-0.27	-0.15
0.14	0.29	0.03	0.28	-0.4	-0.57	-0.34	0.03	0.23	-0.42	-0.209839911318414	0.47	0.44	0.31
1.06	0.11	0.47	-0.43	-0.55	0.19	0.14	0.12	-0.17	-0.38	-0.03	0.02	-0.31	-0.23
-0.79	0.21	0.2	0.25	0.03	0.37	0.06	0.27	-0.13	0.12	-0.03	-0.13	-0.51	0.08
1.19	0.17	0.01	0.32	0.18	-0.52	-0.25	-0.06	-0.18	-0.22	0.02	-0.09	-0.33	-0.24
-0.95	-0.220133239538555	0.08	0.13	0.3	0.211258914673756	-0.07	0.33	0.26	0.22	0.11	-0.07	-0.32	-0.28
0.26	0.17	-0.08	0.29	0.17	0.27	0.07	0	-0.14	-0.05	-0.16	-0.25	-0.19	-0.37
0.4	-0.25	-0.47	-0.4	-0.54	-0.54	-0.4	0.05	0.66	0.29	-0.27	0.78	0.32	0.36
0.1	1.34	-0.01	-0.21	-0.19	0.15	-0.14	0.04	-0.1	-0.118871848126072	0.0242328013367867	-0.106659121307549	-0.27	-0.19
0.58	-0.19	-0.32	0.15	0.15	-0.14	0.29	-0.14	0.54	-0.14	-0.16	-0.23	-0.5	0.13
0.64	0.17	0.3	0.2	0.1	0.1	0.19	-0.28	-0.43	-0.43	0.09	-0.13	-0.54	0.03
-1.06	-0.27	-0.1	-0.07	-0.33	-0.51	-0.34	0.51	0.29	0.36	0.11	0.51	0.51	0.41
0.19	-0.27	-0.43	-0.12	-0.07	0.21	-0.01	0.24	0.04	0.01	-0.16	-0.09	0.34	0.11
0.38	0.1	0.22	0.08	0.13	0.3	-0.12	0.06	-0.16	-0.078221489474702	-0.19	-0.1	-0.38	-0.08
-0.06	-0.06	0.12	0.34	0.07	-0.06	-0.12	0.08	-0.07	0.04	-0.1	-0.16	-0.16	0.14
0.12	-0.18	-0.08	-0.18	0.1	0.08	0.15	0.15	0.05	-0.31	0.01	0.01	0.03	0.03
-0.03	0.36	-0.04	0.41	0.15	0.04	-0.41	0.19	-0.45	-0.01	0.06	-0.08	-0.26	0.07
-0.45	-0.31	-0.26	-0.74	-0.06	0.09	-0.37	0.38	0.35	0.45	0.13	0.27	0.31	0.19
0.12	-0.27	0.03	0.36	1.09	0.41	0.15	0.01	-0.22	-0.01	-0.09	-0.55	-0.55	-0.49
1.31	0.05	-0.17	0.23	-0.25	-0.76	-0.06	-0.22	0.36	-0.17	-0.46	-0.06	0.21	-0.01
0.34	0.03	-0.12	-0.03	0.33	-0.23	-0.08	0.2	-0.08	0.08	-0.12	-0.14	0.12	-0.3
-0.03	-0.03	-0.22	0.06	-0.03	-0.31	0.01	0.22	0.46	0.24	-0.42	0.21	-0.26	0.1
